PO/vcd_files/imem_waves.vcd
$date
     May 18, 2025       14:29:02
$end

$version
 SystemC 2.3.3-Accellera --- May 13 2025 13:35:09
$end

$timescale
     1 ns
$end

$scope module SystemC $end
$var wire    1  aaaaa  clock       $end
$var wire    1  aaaab  enable       $end
$var wire    1  aaaac  write       $end
$var wire   32  aaaad  address [31:0]  $end
$var wire   32  aaaae  instruction [31:0]  $end
$upscope $end
$enddefinitions  $end

$comment
All initial values are dumped below at time 0 sec = 0 timescale units.
$end

$dumpvars
1aaaaa
1aaaab
1aaaac
b0 aaaad
b1010000000000000 aaaae
$end

#5
0aaaaa

#10
1aaaaa
b1 aaaad
b1010000000000001 aaaae

#15
0aaaaa

#20
1aaaaa
b10 aaaad
b1010000000000010 aaaae

#25
0aaaaa

#30
1aaaaa
b11 aaaad
b1010000000000011 aaaae

#35
0aaaaa

#40
1aaaaa
b100 aaaad
b1010000000000100 aaaae

#45
0aaaaa

#50
1aaaaa
0aaaac
b0 aaaad
b1010000000000000 aaaae

#55
0aaaaa

#60
1aaaaa
b1 aaaad
b1010000000000001 aaaae

#65
0aaaaa

#70
1aaaaa
b10 aaaad
b1010000000000010 aaaae

#75
0aaaaa

#80
1aaaaa
b11 aaaad
b1010000000000011 aaaae

#85
0aaaaa

#90
1aaaaa
b100 aaaad
b1010000000000100 aaaae

#95
0aaaaa

#100
1aaaaa
0aaaab
b10 aaaad
b0 aaaae

