PO/alu_waves.vcd
$date
     May 12, 2025       14:12:47
$end

$version
 SystemC 2.3.3-Accellera --- May 10 2025 16:26:38
$end

$timescale
     1 ns
$end

$scope module SystemC $end
$var wire   32  aaaaa  operand1 [31:0]  $end
$var wire   32  aaaab  operand2 [31:0]  $end
$var wire    4  aaaac  opcode [3:0]  $end
$var wire   32  aaaad  result [31:0]  $end
$var wire    1  aaaae  flag_N       $end
$var wire    1  aaaaf  flag_Z       $end
$upscope $end
$enddefinitions  $end

$comment
All initial values are dumped below at time 0 sec = 0 timescale units.
$end

$dumpvars
b1100 aaaaa
b1010 aaaab
b1 aaaac
b1000 aaaad
0aaaae
0aaaaf
$end

#1
b10 aaaac
b1110 aaaad

#2
b11 aaaac
b110 aaaad

#3
b11 aaaaa
b0 aaaab
b100 aaaac
b11111111111111111111111111111100 aaaad
1aaaae

#4
b1010 aaaaa
b101 aaaab
b101 aaaac
b1111 aaaad
0aaaae

#5
b1111 aaaab
b110 aaaac
b11111111111111111111111111111011 aaaad
1aaaae

#6
b111 aaaaa
b111 aaaab
b111 aaaac
b0 aaaad
0aaaae
1aaaaf

#7
b101 aaaaa
b1010 aaaab
1aaaae
0aaaaf

#8
b11 aaaaa
b11 aaaab
0aaaae
1aaaaf

